%YAML 1.1
%TAG !u! tag:unity3d.com,2011:
--- !u!1 &149888917784168588
GameObject:
  m_ObjectHideFlags: 0
  m_CorrespondingSourceObject: {fileID: 0}
  m_PrefabInstance: {fileID: 0}
  m_PrefabAsset: {fileID: 0}
  serializedVersion: 6
  m_Component:
  - component: {fileID: 149888917784168591}
  - component: {fileID: 2553650769391007996}
  m_Layer: 0
  m_Name: Corner (7)
  m_TagString: Untagged
  m_Icon: {fileID: 0}
  m_NavMeshLayer: 0
  m_StaticEditorFlags: 0
  m_IsActive: 1
--- !u!4 &149888917784168591
Transform:
  m_ObjectHideFlags: 0
  m_CorrespondingSourceObject: {fileID: 0}
  m_PrefabInstance: {fileID: 0}
  m_PrefabAsset: {fileID: 0}
  m_GameObject: {fileID: 149888917784168588}
  m_LocalRotation: {x: 0.5, y: -0.5, z: -0.5, w: 0.5}
  m_LocalPosition: {x: 5.77, y: 0, z: -3.36}
  m_LocalScale: {x: 1, y: 1, z: 1.2}
  m_Children:
  - {fileID: 5147112876008590475}
  m_Father: {fileID: 0}
  m_RootOrder: 0
  m_LocalEulerAnglesHint: {x: 0, y: -90, z: -90}
--- !u!65 &2553650769391007996
BoxCollider:
  m_ObjectHideFlags: 0
  m_CorrespondingSourceObject: {fileID: 0}
  m_PrefabInstance: {fileID: 0}
  m_PrefabAsset: {fileID: 0}
  m_GameObject: {fileID: 149888917784168588}
  m_Material: {fileID: 0}
  m_IsTrigger: 0
  m_Enabled: 1
  serializedVersion: 2
  m_Size: {x: 0.5, y: 1.2, z: 1.8}
  m_Center: {x: -0.2, y: 0.5, z: 0.06}
--- !u!1001 &149888918530910097
PrefabInstance:
  m_ObjectHideFlags: 0
  serializedVersion: 2
  m_Modification:
    m_TransformParent: {fileID: 149888917784168591}
    m_Modifications:
    - target: {fileID: -927199367670048503, guid: 7e89b91e148dc694db3b3b4e92295d27,
        type: 3}
      propertyPath: m_Name
      value: Model
      objectReference: {fileID: 0}
    - target: {fileID: -4216859302048453862, guid: 7e89b91e148dc694db3b3b4e92295d27,
        type: 3}
      propertyPath: m_LocalPosition.x
      value: 0
      objectReference: {fileID: 0}
    - target: {fileID: -4216859302048453862, guid: 7e89b91e148dc694db3b3b4e92295d27,
        type: 3}
      propertyPath: m_LocalPosition.y
      value: 0
      objectReference: {fileID: 0}
    - target: {fileID: -4216859302048453862, guid: 7e89b91e148dc694db3b3b4e92295d27,
        type: 3}
      propertyPath: m_LocalPosition.z
      value: 0
      objectReference: {fileID: 0}
    - target: {fileID: -4216859302048453862, guid: 7e89b91e148dc694db3b3b4e92295d27,
        type: 3}
      propertyPath: m_LocalRotation.x
      value: 0
      objectReference: {fileID: 0}
    - target: {fileID: -4216859302048453862, guid: 7e89b91e148dc694db3b3b4e92295d27,
        type: 3}
      propertyPath: m_LocalRotation.y
      value: 0
      objectReference: {fileID: 0}
    - target: {fileID: -4216859302048453862, guid: 7e89b91e148dc694db3b3b4e92295d27,
        type: 3}
      propertyPath: m_LocalRotation.z
      value: 0
      objectReference: {fileID: 0}
    - target: {fileID: -4216859302048453862, guid: 7e89b91e148dc694db3b3b4e92295d27,
        type: 3}
      propertyPath: m_LocalRotation.w
      value: 1
      objectReference: {fileID: 0}
    - target: {fileID: -4216859302048453862, guid: 7e89b91e148dc694db3b3b4e92295d27,
        type: 3}
      propertyPath: m_RootOrder
      value: 0
      objectReference: {fileID: 0}
    - target: {fileID: -4216859302048453862, guid: 7e89b91e148dc694db3b3b4e92295d27,
        type: 3}
      propertyPath: m_LocalEulerAnglesHint.x
      value: 0
      objectReference: {fileID: 0}
    - target: {fileID: -4216859302048453862, guid: 7e89b91e148dc694db3b3b4e92295d27,
        type: 3}
      propertyPath: m_LocalEulerAnglesHint.y
      value: 0
      objectReference: {fileID: 0}
    - target: {fileID: -4216859302048453862, guid: 7e89b91e148dc694db3b3b4e92295d27,
        type: 3}
      propertyPath: m_LocalEulerAnglesHint.z
      value: 0
      objectReference: {fileID: 0}
    - target: {fileID: -1504981713932161579, guid: 7e89b91e148dc694db3b3b4e92295d27,
        type: 3}
      propertyPath: m_Materials.Array.data[0]
      value: 
      objectReference: {fileID: 2100000, guid: d1f17021538fd884ea8c61cb899abdd8, type: 2}
    m_RemovedComponents: []
  m_SourcePrefab: {fileID: 100100000, guid: 7e89b91e148dc694db3b3b4e92295d27, type: 3}
--- !u!4 &5147112876008590475 stripped
Transform:
  m_CorrespondingSourceObject: {fileID: -4216859302048453862, guid: 7e89b91e148dc694db3b3b4e92295d27,
    type: 3}
  m_PrefabInstance: {fileID: 149888918530910097}
  m_PrefabAsset: {fileID: 0}
