%YAML 1.1
%TAG !u! tag:unity3d.com,2011:
--- !u!114 &11400000
MonoBehaviour:
  m_ObjectHideFlags: 0
  m_CorrespondingSourceObject: {fileID: 0}
  m_PrefabInstance: {fileID: 0}
  m_PrefabAsset: {fileID: 0}
  m_GameObject: {fileID: 0}
  m_Enabled: 1
  m_EditorHideFlags: 0
  m_Script: {fileID: 11500000, guid: 2a023af2ff2530f44aee5427b0e9e14a, type: 3}
  m_Name: BakedChickenRecipe
  m_EditorClassIdentifier: 
  EatablesNeeded:
  - {fileID: 11400000, guid: bc0025b6104b1ec488fc3cdf5f884014, type: 2}
  ReturnEatable: {fileID: 11400000, guid: a973223c655cfe74484570a56fe7558e, type: 2}
  IsMakeable: 0
