%YAML 1.1
%TAG !u! tag:unity3d.com,2011:
--- !u!114 &11400000
MonoBehaviour:
  m_ObjectHideFlags: 0
  m_CorrespondingSourceObject: {fileID: 0}
  m_PrefabInstance: {fileID: 0}
  m_PrefabAsset: {fileID: 0}
  m_GameObject: {fileID: 0}
  m_Enabled: 1
  m_EditorHideFlags: 0
  m_Script: {fileID: 11500000, guid: b6152d1dc95ff864db501f4a4c5ce56a, type: 3}
  m_Name: StuffedChicken
  m_EditorClassIdentifier: 
  EatableName: StuffedChicken
  DamageAmount: 5000
  ForceAmount: 8
  ThrowMechanic: 0
  VisualObjectMesh: {fileID: 2935500685913687472, guid: 8f29579ea077f284cbfbd118f5779a52,
    type: 3}
  VisualMaterial: {fileID: 2100000, guid: d1f17021538fd884ea8c61cb899abdd8, type: 2}
  paintColor: {r: 0.6698113, g: 0.41902754, b: 0.23380207, a: 1}
  Name: 3
  paintDiameter: 50
  KnockbackForce: 10
  Image: {fileID: 6068810917223083948, guid: bce79125d444c3b4982c86096d67b90c, type: 3}
